module github.com/meeech/ex-5

go 1.18

require (
	github.com/hajimehoshi/ebiten/v2 v2.4.6
	github.com/jakecoffman/cp v1.2.1
	github.com/sedyh/mizu v1.0.4
	golang.org/x/image v0.0.0-20220722155232-062f8c9fd539
)

require (
	github.com/ebitengine/purego v0.0.0-20220905075623-aeed57cda744 // indirect
	github.com/go-gl/glfw/v3.3/glfw v0.0.0-20220806181222-55e207c401ad // indirect
	github.com/hajimehoshi/file2byteslice v0.0.0-20210813153925-5340248a8f41 // indirect
	github.com/jezek/xgb v1.0.1 // indirect
	golang.org/x/exp v0.0.0-20190731235908-ec7cb31e5a56 // indirect
	golang.org/x/mobile v0.0.0-20220722155234-aaac322e2105 // indirect
	golang.org/x/sys v0.0.0-20220818161305-2296e01440c6 // indirect
)
